…
plot(lasso_fit)
```

<img src="../data/boardgame_ratings/lasso_l1norm_vs_coef.png" alt="rating histogram"  height="400"/>

The plot above shows how the predictor's coefficients get penalized by basically removing them at lower values of L1 Norm (**sum of the absolute values of the coefficients**), aka, large penalization (large values of the hyperparameter lambda). The algorithm keeps decreasing lambda and adding more parameters.

```r
lasso_fit |> 
  tidy() |> 
  arrange(step)
```

<pre>
# A tibble: 5,051 × 5
   term                   step estimate lambda dev.ratio
   <chr>                 <dbl>    <dbl>  <dbl>     <dbl>
 1 (Intercept)               1   6.38    0.244    0     
 2 (Intercept)               2   6.38    0.223    0.0143
 3 designer_(Uncredited)     2  -0.0969  0.223    0.0143
 4 (Intercept)               3   6.39    0.203    0.0262
 5 designer_(Uncredited)     3  -0.185   0.203    0.0262
 6 (Intercept)               4   6.39    0.185    0.0388
 7 category_Wargame          4   0.0147  0.185    0.0388
 8 designer_(Uncredited)     4  -0.263   0.185    0.0388
 9 (Intercept)               5   6.38    0.168    0.0538
10 category_Wargame          5   0.0528  0.168    0.0538
# ℹ 5,041 more rows
…
Lambda can take values starting at zero, so since the plot above shows the logarithm of lambda, its optimal values are between 0 and 1. In particular, the optimal lambda is set at around -6 (left vertical dotted line) which minimizes the model error (MSE). The line at -4 is one standard error from the optimal value. It is also a good value of lambda and it has the advantage of having fewer predictors, which can be good for interpretability (around \~70 parameters contribute to most of the gain).

As lambda decreases the MSE goes down and it flattens out, so there's not much risk of overfitting, which would be the case if the error had started increasing again. This means that it is not a bad idea to lower the threshold set on the number of times a categorical variable value appears.

```r
chosen_lambda <- cv_lasso_fit$lambda.1se

cv_lasso_fit$glmnet.fit |> 
  tidy() |> 
  filter(lambda == chosen_lambda) |> 
  arrange(desc(estimate))
```

<pre>
# A tibble: 62 × 5
   term                              step estimate lambda dev.ratio
   <chr>                            <dbl>    <dbl>  <dbl>     <dbl>
 1 (Intercept)                         30    6.26  0.0165     0.293
 2 family_Solitaire Games              30    0.487 0.0165     0.293
 3 designer_Dean Essig                 30    0.445 0.0165     0.293
 4 category_Miniatures                 30    0.403 0.0165     0.293
 5 artist_Nicolás Eskubi               30    0.357 0.0165     0.293
 6 category_Civilization               30    0.344 0.0165     0.293
 7 family_Crowdfunding: Kickstarter    30    0.336 0.0165     0.293
 8 artist_Rodger B. MacGowan           30    0.311 0.0165     0.293
 9 category_Trains                     30    0.292 0.0165     0.293
10 family_Combinatorial                30    0.265 0.0165     0.293
# ℹ 52 more rows
…
